<?xml version="1.0" encoding="UTF-8"?>
<!DOCTYPE svg PUBLIC "-//W3C//DTD SVG 1.1//EN" "http://www.w3.org/Graphics/SVG/1.1/DTD/svg11.dtd">
<!-- Creator: CorelDRAW X6 -->
<svg xmlns="http://www.w3.org/2000/svg" xml:space="preserve" width="512px" height="512px" version="1.1" style="shape-rendering:geometricPrecision; text-rendering:geometricPrecision; image-rendering:optimizeQuality; fill-rule:evenodd; clip-rule:evenodd"
viewBox="0 0 512 512"
 xmlns:xlink="http://www.w3.org/1999/xlink">
 <defs>
  <style type="text/css">
   <![CDATA[
    .fil0 {fill:#4B4B4D}
   ]]>
  </style>
 </defs>
 <g id="Camada_x0020_1">
  <metadata id="CorelCorpID_0Corel-Layer"/>
  <path class="fil0" d="M446 0c-8,0 -19,-1 -28,5l-229 194 0 -154c0,-25 -20,-45 -45,-45l-67 0c-25,0 -45,20 -45,45l0 423c0,25 20,45 45,45l67 0c25,0 45,-20 45,-45l0 -156 229 194c9,6 19,5 28,5 32,0 32,-29 32,-36l0 -438c0,-6 0,-36 -32,-36z"/>
 </g>
</svg>
